{
    "data": {
        "status": "SUCESS",
        "totalRecords": 946,
        "totalPages": 10,
        "currentPage": 1,
        "startRecordNumber": 0,
        "selectedColumns": "DEALNAME,DEALID,QUOTEID,NETPRICEP,EXPIRATIONDATE",
        "sortOrder": "DESC",
        "sortColumn": "lastUpdatedDt",
        "noOfRows": 100,
        "responseDataList": [
            {
                "dealID": "686288737",
                "dealType": "3",
                "dealName": "EA_SK1-DEAL",
                "dealStatus": "Qualified",
                "dealCreator": "mariar",
                "endCustomerName": "WEWORK",
                "quoteID": "4734292633",
                "quoteLastUpdatedBy": "mariar",
                "quoteLastUpdatedDate": "10 Aug 2021",
                "expirationDate": "06 Feb 2022",
                "submissionDate": "10 Aug 2021",
                "createdOn": "10 Aug 2021",
                "lastModifiedDate": "10 Aug 2021",
                "partnerBeGeoId": "639324",
                "erpPriceListName": "Global Price List US Availability",
                "updatedBy": "mariar",
                "dealExpectedCloseDate": "2021-09-05 12:00:00",
                "partnerContactFName": "Maria",
                "partnerContactLName": "Roark",
                "partnerContactEmail": "maria.roark@aos5.com",
                "customerCity": "NEW YORK",
                "customerCountry": "US",
                "customerCountryDesc": "UNITED STATES",
                "customerPhone": "5646556712",
                "customerZipCode": "10011",
                "customerTheater": "AMERICAS",
                "customerFName": "Sonam",
                "customerLName": "Khante",
                "customerEmail": "skhante@cisco.com",
                "amemailID": "nlechner",
                "camemailID": "khazard",
                "partnerType": "Cisco",
                "buyingProgram": "EA 3.0"
            },
            {
                "dealID": "686285252",
                "dealType": "3",
                "dealName": "PG Vnext deal",
                "dealStatus": "Qualified",
                "dealCreator": "mariar",
                "endCustomerName": "GOOGLE INC",
                "quoteID": "4734288648",
                "quoteLastUpdatedBy": "mariar",
                "quoteLastUpdatedDate": "10 Aug 2021",
                "expirationDate": "06 Feb 2022",
                "submissionDate": "10 Aug 2021",
                "createdOn": "10 Aug 2021",
                "lastModifiedDate": "10 Aug 2021",
                "partnerBeGeoId": "639324",
                "erpPriceListName": "Global Price List US Availability",
                "updatedBy": "mariar",
                "dealExpectedCloseDate": "2021-08-26 12:00:00",
                "partnerContactFName": "Maria",
                "partnerContactLName": "Roark",
                "partnerContactEmail": "maria.roark@aos5.com",
                "customerCity": "FREMONT",
                "customerCountry": "US",
                "customerCountryDesc": "UNITED STATES",
                "customerPhone": "1234567890",
                "customerZipCode": "94538",
                "customerTheater": "AMERICAS",
                "customerFName": "P",
                "customerLName": "G",
                "customerEmail": "prguntur@cisco.com",
                "camemailID": "cfreeze",
                "partnerType": "Cisco",
                "buyingProgram": "EA 2.0"
            },
            {
                "dealID": "686285251",
                "dealType": "3",
                "dealName": "testorder22",
                "dealStatus": "Qualified",
                "dealCreator": "mariar",
                "endCustomerName": "GOOGLE INC",
                "quoteID": "4734288647",
                "quoteLastUpdatedBy": "mariar",
                "quoteLastUpdatedDate": "10 Aug 2021",
                "expirationDate": "06 Feb 2022",
                "submissionDate": "10 Aug 2021",
                "createdOn": "10 Aug 2021",
                "lastModifiedDate": "10 Aug 2021",
                "partnerBeGeoId": "639324",
                "erpPriceListName": "Global Price List US Availability",
                "updatedBy": "mariar",
                "dealExpectedCloseDate": "2021-08-11 12:00:00",
                "partnerContactFName": "Maria",
                "partnerContactLName": "Roark",
                "partnerContactEmail": "maria.roark@aos5.com",
                "customerCity": "UNION CITY",
                "customerCountry": "US",
                "customerCountryDesc": "UNITED STATES",
                "customerPhone": "6692144274",
                "customerZipCode": "30291",
                "customerTheater": "AMERICAS",
                "customerFName": "test",
                "customerLName": "name",
                "customerEmail": "shylkoth@cisco.com",
                "amemailID": "tsrikant",
                "camemailID": "amahardy",
                "partnerType": "Cisco",
                "buyingProgram": "EA 2.0"
            },
            {
                "dealID": "686285250",
                "dealType": "3",
                "dealName": "testorder21",
                "dealStatus": "Qualified",
                "dealCreator": "mariar",
                "endCustomerName": "GOOGLE INC",
                "quoteID": "4734288646",
                "quoteLastUpdatedBy": "mariar",
                "quoteLastUpdatedDate": "10 Aug 2021",
                "expirationDate": "06 Feb 2022",
                "submissionDate": "10 Aug 2021",
                "createdOn": "10 Aug 2021",
                "lastModifiedDate": "10 Aug 2021",
                "partnerBeGeoId": "639324",
                "erpPriceListName": "Global Price List US Availability",
                "updatedBy": "mariar",
                "dealExpectedCloseDate": "2021-08-11 12:00:00",
                "partnerContactFName": "Maria",
                "partnerContactLName": "Roark",
                "partnerContactEmail": "maria.roark@aos5.com",
                "customerCity": "FREMONT",
                "customerCountry": "US",
                "customerCountryDesc": "UNITED STATES",
                "customerPhone": "9998887777",
                "customerZipCode": "94538",
                "customerTheater": "AMERICAS",
                "customerFName": "shylendra",
                "customerLName": "kotha",
                "customerEmail": "shylkoth@cisco.com",
                "camemailID": "amahardy",
                "partnerType": "Cisco",
                "buyingProgram": "EA 3.0"
            },
            {
                "dealID": "686175737",
                "dealType": "3",
                "dealName": "E2E_TEST_12",
                "dealStatus": "Qualified",
                "dealCreator": "mariar",
                "endCustomerName": "GOOGLE, INC.",
                "quoteID": "4734149133",
                "quoteLastUpdatedBy": "mariar",
                "quoteLastUpdatedDate": "10 Aug 2021",
                "expirationDate": "31 Jan 2022",
                "submissionDate": "04 Aug 2021",
                "createdOn": "04 Aug 2021",
                "lastModifiedDate": "10 Aug 2021",
                "partnerBeGeoId": "639324",
                "erpPriceListName": "Global Price List US Availability",
                "updatedBy": "gresimmo",
                "dealExpectedCloseDate": "2021-08-05 12:00:00",
                "partnerContactFName": "Maria",
                "partnerContactLName": "Roark",
                "partnerContactEmail": "maria.roark@aos5.com",
                "customerCity": "MOUNTAIN VIEW",
                "customerCountry": "US",
                "customerCountryDesc": "UNITED STATES",
                "customerPhone": "2",
                "customerZipCode": "94042",
                "customerTheater": "AMERICAS",
                "customerFName": "t",
                "customerLName": "t",
                "customerEmail": "test@test.com",
                "amemailID": "gresimmo",
                "camemailID": "amahardy",
                "partnerType": "Partner",
                "buyingProgram": "EA 3.0"
            }
        ]
    }
}